GROUP,PACKAGE,CLASS,INSTRUCTION_MISSED,INSTRUCTION_COVERED,BRANCH_MISSED,BRANCH_COVERED,LINE_MISSED,LINE_COVERED,COMPLEXITY_MISSED,COMPLEXITY_COVERED,METHOD_MISSED,METHOD_COVERED
HearthstoneWebApp,univnantes.hearthstone.exception,GameAlreadyFullException,0,10,0,0,0,4,0,2,0,2
HearthstoneWebApp,univnantes.hearthstone.exception,CantPlayException,10,0,0,0,4,0,2,0,2,0
HearthstoneWebApp,univnantes.hearthstone.exception,EnoughManaException,0,10,0,0,0,4,0,2,0,2
HearthstoneWebApp,univnantes.hearthstone.controller.Impl,WebSocketController,256,76,5,7,25,11,11,5,7,3
HearthstoneWebApp,univnantes.hearthstone.controller.Impl,AccueilControllerImpl,18,99,7,9,4,19,6,7,0,5
HearthstoneWebApp,univnantes.hearthstone.controller.Impl,GameControllerImpl,227,538,48,58,49,110,44,30,5,16
HearthstoneWebApp,univnantes.hearthstone.util.metaClasses,MetaHero,15,18,0,0,5,7,5,1,5,1
HearthstoneWebApp,univnantes.hearthstone.util.metaClasses,MetaServant,53,0,0,0,22,0,11,0,11,0
HearthstoneWebApp,univnantes.hearthstone.util,TurnManager,56,144,4,6,12,35,6,9,2,8
HearthstoneWebApp,univnantes.hearthstone.util,TurnManager.new TimerTask() {...},6,16,0,0,2,2,0,2,0,2
HearthstoneWebApp,univnantes.hearthstone.util,TurnManager.new TimerTask() {...},72,0,2,0,11,0,3,0,2,0
HearthstoneWebApp,univnantes.hearthstone.controller,TestController,163,9,17,1,35,1,14,2,5,2
HearthstoneWebApp,univnantes.hearthstone.controller,MainController,4,3,0,0,2,1,2,1,2,1
HearthstoneWebApp,univnantes.hearthstone.util.clientMessages,CreateGameMessage,15,0,0,0,6,0,3,0,3,0
HearthstoneWebApp,univnantes.hearthstone.util.clientMessages,InvokeMessage,19,0,0,0,7,0,4,0,4,0
HearthstoneWebApp,univnantes.hearthstone.util.clientMessages,ForfeitMessage,10,0,0,0,4,0,2,0,2,0
HearthstoneWebApp,univnantes.hearthstone.util.clientMessages,ActionMessage,22,0,0,0,8,0,4,0,4,0
HearthstoneWebApp,univnantes.hearthstone.util.clientMessages,CheckMessage,3,7,0,0,2,2,1,1,1,1
HearthstoneWebApp,univnantes.hearthstone.util.clientMessages,SecureClientMessage,6,24,0,0,3,9,2,4,2,4
HearthstoneWebApp,univnantes.hearthstone.util.clientMessages,JoinGameMessage,36,0,0,0,16,0,8,0,8,0
HearthstoneWebApp,univnantes.hearthstone.util.clientMessages,SetHeroMessage,20,0,0,0,8,0,4,0,4,0
HearthstoneWebApp,univnantes.hearthstone.util.serverMessages,JoinMessage,15,0,0,0,6,0,3,0,3,0
HearthstoneWebApp,univnantes.hearthstone.util.serverMessages,GameContentMessage,99,170,9,7,20,41,24,1,16,1
HearthstoneWebApp,univnantes.hearthstone.util.serverMessages,ErrorMessage,6,0,0,0,2,0,1,0,1,0
HearthstoneWebApp,univnantes.hearthstone.util.serverMessages,StandardMessage,3,6,0,0,1,2,1,1,1,1
HearthstoneWebApp,univnantes.hearthstone.util.serverMessages,HandMessage,18,0,0,0,7,0,3,0,3,0
HearthstoneWebApp,univnantes.hearthstone,HearthstoneWebAppApplication,5,3,0,0,2,1,1,1,1,1
HearthstoneWebApp,univnantes.hearthstone.configuration,WebSocketConfig,0,41,0,0,0,5,0,3,0,3
